…
## Read data

First, we will read in the data:

``` r
population_raw <- 
  read_csv(
    path_data("00-import", "population-states.csv"), 
    col_names = c("abbreviation", "year", "population"),
    col_types = cols(abbreviation = "c", year = "d", population = "d")
  ) %>%
  print()
```

    ## # A tibble: 6,020 x 3
    ##    abbreviation  year population
    ##    <chr>        <dbl>      <dbl>
    ##  1 AK            1950     135000
    ##  2 AK            1951     158000
    ##  3 AK            1952     189000
    ##  4 AK            1953     205000
    ##  5 AK            1954     215000
    ##  6 AK            1955     222000
    ##  7 AK            1956     224000
    ##  8 AK            1957     231000
    ##  9 AK            1958     224000
    ## 10 AK            1959     224000
    ## # … with 6,010 more rows
…
covid_raw <- 
  read_csv(
    path_data("00-import", "covid-states.csv"),
    col_types = cols(
      date = col_date(format = ""),
      state = col_character(),
      fips = col_character(),
      cases = col_double(),
      deaths = col_double()
    )
  ) %>%
  print()
```

    ## # A tibble: 16,514 x 5
    ##    date       state      fips  cases deaths
    ##    <date>     <chr>      <chr> <dbl>  <dbl>
    ##  1 2020-01-21 Washington 53        1      0
    ##  2 2020-01-22 Washington 53        1      0
    ##  3 2020-01-23 Washington 53        1      0
    ##  4 2020-01-24 Illinois   17        1      0
    ##  5 2020-01-24 Washington 53        1      0
    ##  6 2020-01-25 California 06        1      0
    ##  7 2020-01-25 Illinois   17        1      0
    ##  8 2020-01-25 Washington 53        1      0
    ##  9 2020-01-26 Arizona    04        1      0
    ## 10 2020-01-26 California 06        2      0
    ## # … with 16,504 more rows
…
## Wrangle data

It looks like we could use a way to link state names with their
abbreviations:

``` r
states <- 
  tibble(
    state = c(state.name, "District of Columbia"),
    abbreviation = c(state.abb, "DC")
  ) %>%
  print()
```

    ## # A tibble: 51 x 2
    ##    state       abbreviation
    ##    <chr>       <chr>       
    ##  1 Alabama     AL          
    ##  2 Alaska      AK          
    ##  3 Arizona     AZ          
    ##  4 Arkansas    AR          
    ##  5 California  CA          
    ##  6 Colorado    CO          
    ##  7 Connecticut CT          
    ##  8 Delaware    DE          
    ##  9 Florida     FL          
    ## 10 Georgia     GA          
    ## # … with 41 more rows
…
  - 2019 population
  - 50 US states, plus District of Columbia

<!-- end list -->

``` r
population <- 
  population_raw %>%
  filter(year == 2019) %>%
  right_join(states, by = "abbreviation") %>%
  select(state, population) %>%
  print()
```

    ## # A tibble: 51 x 2
    ##    state                population
    ##    <chr>                     <dbl>
    ##  1 Alaska                   731545
    ##  2 Alabama                 4903185
    ##  3 Arkansas                3017804
    ##  4 Arizona                 7278717
    ##  5 California             39512223
    ##  6 Colorado                5758736
    ##  7 Connecticut             3565287
    ##  8 District of Columbia     705749
    ##  9 Delaware                 973764
    ## 10 Florida                21477737
    ## # … with 41 more rows

``` r
covid <- 
  covid_raw %>%
  filter(state %in% states$state) %>%
  print()
```

    ## # A tibble: 15,372 x 5
    ##    date       state      fips  cases deaths
    ##    <date>     <chr>      <chr> <dbl>  <dbl>
    ##  1 2020-01-21 Washington 53        1      0
    ##  2 2020-01-22 Washington 53        1      0
    ##  3 2020-01-23 Washington 53        1      0
    ##  4 2020-01-24 Illinois   17        1      0
    ##  5 2020-01-24 Washington 53        1      0
    ##  6 2020-01-25 California 06        1      0
    ##  7 2020-01-25 Illinois   17        1      0
    ##  8 2020-01-25 Washington 53        1      0
    ##  9 2020-01-26 Arizona    04        1      0
    ## 10 2020-01-26 California 06        2      0
    ## # … with 15,362 more rows

We can see which states have the most cases, also verifying the recency
of the data:

``` r
covid %>%
  filter(date == max(date)) %>%
  arrange(desc(cases))
```

    ## # A tibble: 51 x 5
    ##    date       state          fips    cases deaths
    ##    <date>     <chr>          <chr>   <dbl>  <dbl>
    ##  1 2020-12-27 California     06    2167233  24283
    ##  2 2020-12-27 Texas          48    1691515  27110
    ##  3 2020-12-27 Florida        12    1271971  21211
    ##  4 2020-12-27 Illinois       17     939671  17336
    ##  5 2020-12-27 New York       36     928376  37000
    ##  6 2020-12-27 Ohio           39     670525   8509
    ##  7 2020-12-27 Pennsylvania   42     614303  15040
    ##  8 2020-12-27 Georgia        13     610574  10356
    ##  9 2020-12-27 Tennessee      47     549299   6451
    ## 10 2020-12-27 North Carolina 37     517449   6592
    ## # … with 41 more rows
…
