…
## Read data

``` r
population <- 
  read_csv(
    path_source("01-clean", "population.csv"),
    col_types = cols(state = "c", population = "d")
  ) %>%
  print()
```

    ## # A tibble: 51 x 2
    ##    state                population
    ##    <chr>                     <dbl>
    ##  1 Alaska                   731545
    ##  2 Alabama                 4903185
    ##  3 Arkansas                3017804
    ##  4 Arizona                 7278717
    ##  5 California             39512223
    ##  6 Colorado                5758736
    ##  7 Connecticut             3565287
    ##  8 District of Columbia     705749
    ##  9 Delaware                 973764
    ## 10 Florida                21477737
    ## # … with 41 more rows
…
covid <- 
  read_csv(
    path_source("01-clean", "covid.csv"),
    col_types = cols(
      date = "D", 
      state = "c", 
      fips = "c", 
      cases = "d", 
      deaths = "d"
    )
  ) %>%
  print()
```

    ## # A tibble: 18,636 x 5
    ##    date       state      fips  cases deaths
    ##    <date>     <chr>      <chr> <dbl>  <dbl>
    ##  1 2020-01-21 Washington 53        1      0
    ##  2 2020-01-22 Washington 53        1      0
    ##  3 2020-01-23 Washington 53        1      0
    ##  4 2020-01-24 Illinois   17        1      0
    ##  5 2020-01-24 Washington 53        1      0
    ##  6 2020-01-25 California 06        1      0
    ##  7 2020-01-25 Illinois   17        1      0
    ##  8 2020-01-25 Washington 53        1      0
    ##  9 2020-01-26 Arizona    04        1      0
    ## 10 2020-01-26 California 06        2      0
    ## # … with 18,626 more rows
…
    cases_total = cases, 
    cases_total_per100k = per_100k(cases_total, population),
    cases_avg_week = (cases - lag(cases_total, 7)) / 7,
    cases_avg_week_per100k = per_100k(cases_avg_week, population),
    cases_week_growth = growth(cases_avg_week),
    deaths_total = deaths,
    deaths_total_per100k = per_100k(deaths_total, population),
    deaths_avg_week = (deaths - lag(deaths_total, 7)) / 7,
    deaths_avg_week_per100k = per_100k(deaths_avg_week, population),
    deaths_week_growth = growth(deaths_avg_week)
  ) %>%
  print()
```

    ## # A tibble: 18,636 x 12
    ## # Groups:   state [51]
    ##    date       state cases_total cases_total_per… cases_avg_week cases_avg_week_…
    ##    <date>     <chr>       <dbl>            <dbl>          <dbl>            <dbl>
    ##  1 2020-01-21 Wash…           1            0.013             NA               NA
    ##  2 2020-01-22 Wash…           1            0.013             NA               NA
    ##  3 2020-01-23 Wash…           1            0.013             NA               NA
    ##  4 2020-01-24 Illi…           1            0.008             NA               NA
    ##  5 2020-01-24 Wash…           1            0.013             NA               NA
    ##  6 2020-01-25 Cali…           1            0.003             NA               NA
    ##  7 2020-01-25 Illi…           1            0.008             NA               NA
    ##  8 2020-01-25 Wash…           1            0.013             NA               NA
    ##  9 2020-01-26 Ariz…           1            0.014             NA               NA
    ## 10 2020-01-26 Cali…           2            0.005             NA               NA
    ## # … with 18,626 more rows, and 6 more variables: cases_week_growth <dbl>,
    ## #   deaths_total <dbl>, deaths_total_per100k <dbl>, deaths_avg_week <dbl>,
    ## #   deaths_avg_week_per100k <dbl>, deaths_week_growth <dbl>

It might also be useful to have files for the most-recent day, each for
cases and deaths.

``` r
covid_recent_cases <- 
  covid_week %>%
  filter(date == max(date)) %>%
  select(date, state, starts_with("cases")) %>%
  arrange(desc(cases_avg_week_per100k)) %>%
  print()
```

    ## # A tibble: 51 x 7
    ## # Groups:   state [51]
    ##    date       state cases_total cases_total_per… cases_avg_week cases_avg_week_…
    ##    <date>     <chr>       <dbl>            <dbl>          <dbl>            <dbl>
    ##  1 2021-03-01 New …     1650560            8485.          7476.             38.4
    ##  2 2021-03-01 New …      792496            8922.          3341              37.6
    ##  3 2021-03-01 Rhod…      126588           11949.           373.             35.2
    ##  4 2021-03-01 Sout…      517976           10060.          1770.             34.4
    ##  5 2021-03-01 Arka…      322509           10687.           964.             32.0
    ##  6 2021-03-01 Conn…      282626            7927.          1042.             29.2
    ##  7 2021-03-01 Dela…       87080            8943.           284.             29.2
    ##  8 2021-03-01 Geor…      983879            9267.          3095.             29.1
    ##  9 2021-03-01 Texas     2661425            9179.          7693.             26.5
    ## 10 2021-03-01 Flor…     1910913            8897.          5428.             25.3
    ## # … with 41 more rows, and 1 more variable: cases_week_growth <dbl>

``` r
covid_recent_deaths <- 
  covid_week %>%
  filter(date == max(date)) %>%
  select(date, state, starts_with("deaths")) %>%
  arrange(desc(deaths_avg_week_per100k)) %>%
  print()
```

    ## # A tibble: 51 x 7
    ## # Groups:   state [51]
    ##    date       state        deaths_total deaths_total_per100k deaths_avg_week
    ##    <date>     <chr>               <dbl>                <dbl>           <dbl>
    ##  1 2021-03-01 Virginia             8783                 103.          185.  
    ##  2 2021-03-01 California          52487                 133.          422.  
    ##  3 2021-03-01 Oklahoma             4478                 113.           39.3 
    ##  4 2021-03-01 Alabama              9931                 203.           48.4 
    ##  5 2021-03-01 Arizona             15979                 220.           68.1 
    ##  6 2021-03-01 Delaware             1422                 146.            7.71
    ##  7 2021-03-01 Texas               44078                 152.          228.  
    ##  8 2021-03-01 Georgia             16834                 159.           74.4 
    ##  9 2021-03-01 Rhode Island         2517                 238.            7.29
    ## 10 2021-03-01 New Jersey          23273                 262.           57   
    ## # … with 41 more rows, and 2 more variables: deaths_avg_week_per100k <dbl>,
    ## #   deaths_week_growth <dbl>
…
